<?xml version="1.0" encoding="UTF-8"?>
<session version="1.0">
<refactoring comment="Rename compilation unit &apos;ochoreinas.VentanaReina.java&apos; to &apos;VentanaReinas.java&apos;&#x0D;&#x0A;- Original project: &apos;OchoReinas&apos;&#x0D;&#x0A;- Original element: &apos;ochoreinas.VentanaReina.java&apos;&#x0D;&#x0A;- Renamed element: &apos;ochoreinas.VentanaReinas.java&apos;" description="Rename compilation unit &apos;VentanaReina.java&apos;" flags="2" id="org.eclipse.jdt.ui.rename.compilationunit" input="/src&lt;ochoreinas{VentanaReina.java" name="VentanaReinas.java" references="false" stamp="1460850042545" version="1.0"/>
</session>